<?xml version="1.0" encoding="UTF-8" standalone="no"?>
<!-- Created with Inkscape (http://www.inkscape.org/) -->

<svg
   xmlns:dc="http://purl.org/dc/elements/1.1/"
   xmlns:cc="http://creativecommons.org/ns#"
   xmlns:rdf="http://www.w3.org/1999/02/22-rdf-syntax-ns#"
   xmlns:svg="http://www.w3.org/2000/svg"
   xmlns="http://www.w3.org/2000/svg"
   xmlns:sodipodi="http://sodipodi.sourceforge.net/DTD/sodipodi-0.dtd"
   xmlns:inkscape="http://www.inkscape.org/namespaces/inkscape"
   width="4.6068916mm"
   height="4.2333336mm"
   viewBox="0 0 4.6068916 4.2333336"
   version="1.1"
   id="svg8"
   inkscape:version="0.92.1 r15371"
   sodipodi:docname="electronic_component.svg">
  <defs
     id="defs2" />
  <sodipodi:namedview
     id="base"
     pagecolor="#ffffff"
     bordercolor="#666666"
     borderopacity="1.0"
     inkscape:pageopacity="0.0"
     inkscape:pageshadow="2"
     inkscape:zoom="5.6"
     inkscape:cx="37.021016"
     inkscape:cy="2.5667186"
     inkscape:document-units="mm"
     inkscape:current-layer="layer1"
     showgrid="false"
     inkscape:window-width="1600"
     inkscape:window-height="838"
     inkscape:window-x="-8"
     inkscape:window-y="-8"
     inkscape:window-maximized="1"
     showborder="false"
     fit-margin-top="0"
     fit-margin-left="0"
     fit-margin-right="0"
     fit-margin-bottom="0" />
  <metadata
     id="metadata5">
    <rdf:RDF>
      <cc:Work
         rdf:about="">
        <dc:format>image/svg+xml</dc:format>
        <dc:type
           rdf:resource="http://purl.org/dc/dcmitype/StillImage" />
        <dc:title></dc:title>
      </cc:Work>
    </rdf:RDF>
  </metadata>
  <g
     inkscape:label="Layer 1"
     inkscape:groupmode="layer"
     id="layer1"
     transform="translate(-51.921852,-179.37453)">
    <g
       id="layer1-3"
       inkscape:label="Layer 1"
       transform="matrix(0.04552853,0,0,0.04552853,49.461357,175.02479)">
      <path
         inkscape:connector-curvature="0"
         id="rect3682"
         d="M 71.437722,95.538722 V 188.52072 H 137.99128 V 95.538722 Z m 4.157368,4.011138 h 58.08224 v 74.02108 H 75.59509 Z"
         style="fill:#000000;stroke-width:0.24506536" />
      <g
         transform="matrix(1.2671293,0,0,1,-63.168932,56.696611)"
         id="g3747">
        <rect
           style="fill:#000000;stroke-width:0.26458332"
           id="rect3690-0"
           width="17.008926"
           height="7.5595245"
           x="155.34821"
           y="50.370571" />
        <rect
           style="fill:#000000;stroke-width:0.26458332"
           id="rect3690-0-3"
           width="17.008926"
           height="7.5595245"
           x="155.34821"
           y="65.820343" />
        <rect
           style="fill:#000000;stroke-width:0.26458332"
           id="rect3690-0-1"
           width="17.008926"
           height="7.5595245"
           x="155.34821"
           y="81.270103" />
        <rect
           style="fill:#000000;stroke-width:0.26458332"
           id="rect3690-0-7"
           width="17.008926"
           height="7.5595245"
           x="155.34821"
           y="96.719872" />
        <rect
           style="fill:#000000;stroke-width:0.26458332"
           id="rect3690-0-6"
           width="17.008926"
           height="7.5595245"
           x="155.34821"
           y="112.16964" />
      </g>
      <g
         transform="matrix(1.2671293,0,0,1,-142.80334,56.696611)"
         id="g3747-9">
        <rect
           style="fill:#000000;stroke-width:0.26458332"
           id="rect3690-0-2"
           width="17.008926"
           height="7.5595245"
           x="155.34821"
           y="50.370571" />
        <rect
           style="fill:#000000;stroke-width:0.26458332"
           id="rect3690-0-3-4"
           width="17.008926"
           height="7.5595245"
           x="155.34821"
           y="65.820343" />
        <rect
           style="fill:#000000;stroke-width:0.26458332"
           id="rect3690-0-1-1"
           width="17.008926"
           height="7.5595245"
           x="155.34821"
           y="81.270103" />
        <rect
           style="fill:#000000;stroke-width:0.26458332"
           id="rect3690-0-7-5"
           width="17.008926"
           height="7.5595245"
           x="155.34821"
           y="96.719872" />
        <rect
           style="fill:#000000;stroke-width:0.26458332"
           id="rect3690-0-6-5"
           width="17.008926"
           height="7.5595245"
           x="155.34821"
           y="112.16964" />
      </g>
    </g>
  </g>
</svg>
